<?xml version="1.0" encoding="utf-8"?>
<!-- Generator: Adobe Illustrator 17.0.0, SVG Export Plug-In . SVG Version: 6.00 Build 0)  -->
<!DOCTYPE svg PUBLIC "-//W3C//DTD SVG 1.1//EN" "http://www.w3.org/Graphics/SVG/1.1/DTD/svg11.dtd">
<svg version="1.1" id="Layer_1" xmlns="http://www.w3.org/2000/svg" xmlns:xlink="http://www.w3.org/1999/xlink" x="0px" y="0px"
	 width="16.003px" height="19.197px" viewBox="0 0 16.003 19.197" enable-background="new 0 0 16.003 19.197" xml:space="preserve">
<path fill="#FFFFFF" d="M16.003,14.085c-0.437,0.999-0.647,1.445-1.21,2.328c-0.786,1.233-1.893,2.768-3.265,2.782
	c-1.219,0.011-1.533-0.819-3.188-0.809c-1.655,0.009-2,0.823-3.22,0.811c-1.372-0.013-2.422-1.4-3.208-2.632
	c-2.197-3.448-2.427-7.494-1.072-9.646C1.804,5.39,3.324,4.496,4.752,4.496c1.455,0,2.369,0.822,3.571,0.822
	c1.167,0,1.877-0.823,3.559-0.823c1.271,0,2.618,0.714,3.577,1.947C12.316,8.218,12.826,12.846,16.003,14.085L16.003,14.085z"/>
<path fill="#FFFFFF" d="M10.607,3.118C11.218,2.309,11.682,1.167,11.513,0c-0.998,0.072-2.165,0.726-2.847,1.579
	c-0.619,0.775-1.129,1.923-0.931,3.04C8.825,4.654,9.953,3.983,10.607,3.118L10.607,3.118z"/>
</svg>
