<?xml version="1.0" encoding="utf-8"?>
<!-- Generator: Adobe Illustrator 15.1.0, SVG Export Plug-In . SVG Version: 6.00 Build 0)  -->
<!DOCTYPE svg PUBLIC "-//W3C//DTD SVG 1.1//EN" "http://www.w3.org/Graphics/SVG/1.1/DTD/svg11.dtd">
<svg version="1.1" id="Layer_1" xmlns:sketch="http://www.bohemiancoding.com/sketch/ns"
	 xmlns="http://www.w3.org/2000/svg" xmlns:xlink="http://www.w3.org/1999/xlink" x="0px" y="0px" width="26px" height="19.836px"
	 viewBox="-0.481 0 26 19.836" enable-background="new -0.481 0 26 19.836" xml:space="preserve">
<title></title>
<g id="miu">
	<g id="editor_list_view_hambuger_menu_glyph">
		<g>
			<path id="path-1_1_" fill="#FFFFFF" d="M-0.481-0.005v2.018h26v-2.018H-0.481z M-0.481,7.988v2.017h26V7.988H-0.481z
				 M-0.481,15.983V18h26v-2.018H-0.481z"/>
		</g>
	</g>
</g>
</svg>
