<?xml version="1.0" encoding="utf-8"?>
<!-- Generator: Adobe Illustrator 16.0.0, SVG Export Plug-In . SVG Version: 6.00 Build 0)  -->
<!DOCTYPE svg PUBLIC "-//W3C//DTD SVG 1.1//EN" "http://www.w3.org/Graphics/SVG/1.1/DTD/svg11.dtd">
<svg version="1.1" id="Layer_1" xmlns="http://www.w3.org/2000/svg" xmlns:xlink="http://www.w3.org/1999/xlink" x="0px" y="0px"
	 width="80px" height="80px" viewBox="0 0 80 80" style="enable-background:new 0 0 80 80;" xml:space="preserve">
<style type="text/css">
<![CDATA[
	.st0{opacity:0.7;}
	.st1{fill:#FFFFFF;}
	.st2{fill-rule:evenodd;clip-rule:evenodd;fill:#FFFFFF;}
]]>
</style>
<g id="Video">
	<path class="st0" d="M40,2.5C19.3,2.5,2.5,19.3,2.5,40c0,20.7,16.8,37.5,37.5,37.5c20.7,0,37.5-16.8,37.5-37.5
		C77.5,19.3,60.7,2.5,40,2.5z"/>
	<path class="st1" d="M40,0C17.9,0,0,17.9,0,40s17.9,40,40,40s40-17.9,40-40S62.1,0,40,0z M40,76C20.1,76,4,59.9,4,40S20.1,4,40,4
		s36,16.1,36,36S59.9,76,40,76z"/>
	<path class="st1" d="M30,57.6c0,0.3,0.2,0.5,0.5,0.3l27.3-17.6c0.3-0.2,0.3-0.5,0-0.7L30.5,22.1C30.2,21.9,30,22,30,22.4V57.6z"/>
</g>
</svg>
