<?xml version="1.0" encoding="utf-8"?>
<!-- Generator: Adobe Illustrator 17.0.0, SVG Export Plug-In . SVG Version: 6.00 Build 0)  -->
<!DOCTYPE svg PUBLIC "-//W3C//DTD SVG 1.1//EN" "http://www.w3.org/Graphics/SVG/1.1/DTD/svg11.dtd">
<svg version="1.1" id="Layer_1" xmlns="http://www.w3.org/2000/svg" xmlns:xlink="http://www.w3.org/1999/xlink" x="0px" y="0px"
	 width="24.91px" height="24.89px" viewBox="0 0 24.91 24.89" enable-background="new 0 0 24.91 24.89" xml:space="preserve">
<path fill="#00295B" d="M3.692,17.507C1.655,17.507,0,19.162,0,21.2c0,2.033,1.655,3.689,3.692,3.689s3.694-1.656,3.694-3.689
	C7.386,19.162,5.729,17.507,3.692,17.507"/>
<path fill="#00295B" d="M0.384,8.131C0.173,8.131,0,8.304,0,8.516v4.688c0,0.211,0.173,0.383,0.384,0.383
	c6.02,0,10.919,4.897,10.919,10.92c0,0.209,0.171,0.383,0.384,0.383h4.689h0.016c0.215,0,0.387-0.174,0.387-0.383l-0.018-0.121
	C16.691,15.412,9.37,8.131,0.384,8.131"/>
<path fill="#00295B" d="M24.89,24.387C24.824,10.925,13.854,0,0.384,0C0.172,0,0,0.172,0,0.386v4.823
	c0,0.213,0.173,0.384,0.384,0.384c10.429,0,18.913,8.485,18.913,18.914c0,0.209,0.172,0.383,0.383,0.383h4.824h0.019
	c0.21,0,0.387-0.174,0.387-0.383L24.89,24.387z"/>
</svg>
